tire_back<?xml version="1.0" encoding="utf-8"?>
    <robot name="legorider">
        <link name="chassis">
            <inertial>
                <origin xyz="0 0 0" rpy="0 0 0"/>
                <mass value="3"/>
                <inertia ixx="1.40323" ixy="0" ixz="0" iyy="1.40323" iyz="0" izz="2.47505"/>
            </inertial>
            <visual name="chassis">
                <origin xyz="0 0 0" rpy="0 0 0"/>
                <geometry>
                    <mesh filename="package://legorider_description/meshes/chassis_main.dae"/>
                </geometry>
            </visual>
        </link>

        <link name="back_swivel">
            <inertial>
                <origin xyz="0 0 0" rpy="0 0 0"/>
                <mass value="3"/>
                <inertia ixx="1.40323" ixy="0" ixz="0" iyy="1.40323" iyz="0" izz="2.47505"/>
            </inertial>
            <visual name="back_swivel">
                <origin xyz="0 0 0" rpy="0 0 0"/>
                <geometry>
                    <mesh filename="package://legorider_description/meshes/back_swivel_piece.dae"/>
                </geometry>
            </visual>
        </link>

        <link name="tire_left">
          <inertial>
            <origin xyz="0 0 0" rpy="0 0 0"/>
            <mass value="5"/>
            <inertia ixx="0.001" ixy="0.001" ixz="0.001" iyy="0.001" iyz="0.001" izz="0.001"/>
          </inertial>
          <visual name="tire_left">
            <origin xyz="0 0 0" rpy="0 0 0"/>
            <geometry>
              <mesh filename="package://legorider_description/meshes/tire.dae"></mesh>
            </geometry>
          </visual>
          <collision name="tire_left">
            <origin xyz="0 0 0" rpy="0 0 0"/>
            <geometry>
              <cylinder radius="0.30531" length="0.28054"/>
            </geometry>
          </collision>
        </link>

        <link name="tire_right">
          <inertial>
            <origin xyz="0 0 0" rpy="0 0 0"/>
            <mass value="5"/>
            <inertia ixx="0.001" ixy="0.001" ixz="0.001" iyy="0.001" iyz="0.001" izz="0.001"/>
          </inertial>
          <visual name="tire_right">
            <origin xyz="0 0 0" rpy="0 0 0"/>
            <geometry>
              <mesh filename="package://legorider_description/meshes/tire.dae"></mesh>
            </geometry>
          </visual>
          <collision name="tire_right">
            <origin xyz="0 0 -0.125" rpy="0 0 0"/>
            <geometry>
              <cylinder radius="0.30531" length="0.28054"/>
            </geometry>
          </collision>
        </link>

        <link name="tire_back">
          <inertial>
            <origin xyz="0 0 0" rpy="0 0 0"/>
            <mass value="5"/>
            <inertia ixx="0.001" ixy="0.001" ixz="0.001" iyy="0.001" iyz="0.001" izz="0.001"/>
          </inertial>
          <visual name="tire_back">
            <origin xyz="0 0 0" rpy="0 0 0"/>
            <geometry>
              <mesh filename="package://legorider_description/meshes/tire_back.dae"></mesh>
            </geometry>
          </visual>
          <collision name="tire_back">
            <origin xyz="0 0 -0.125" rpy="0 0 0"/>
            <geometry>
              <cylinder radius="0.30531" length="0.28054"/>
            </geometry>
          </collision>
        </link>

        <joint name="tire_left_joint" type="continuous">
          <origin xyz="4.9096 -1.25759 2.87609" rpy="0 0 0"/>
          <parent link="chassis"/>
          <child link="tire_left"/>
          <axis xyz="0 0 1.0"/>
          <limit effort="0" velocity="0"/>
        </joint>

        <joint name="tire_right_joint" type="continuous">
          <origin xyz="-4.87072 -1.26346 2.87588" rpy="0 0 0"/>
          <parent link="chassis"/>
          <child link="tire_right"/>
          <axis xyz="0 0 1.0"/>
          <limit effort="0" velocity="0"/>
        </joint>

        <joint name="back_swivel_joint" type="revolute">
          <origin xyz="0 8.35306 2.75165" rpy="0 0 0"/>
          <parent link="chassis"/>
          <child link="tire_back"/>
          <axis xyz="0 1.0 0"/>
          <limit effort="0" velocity="0"/>
        </joint>

        <joint name="tire_back_joint" type="revolute">
          <origin xyz="-4.87072 -1.26346 2.87588" rpy="0 0 0"/>
          <parent link="back_swivel"/>
          <child link="tire_back"/>
          <axis xyz="0 0 1.0"/>
          <limit effort="0" velocity="0"/>
        </joint>
    </robot>
